module toyrouter

go 1.19

require (
	github.com/docker/distribution v2.8.1+incompatible
	github.com/go-chi/chi/v5 v5.0.8
	github.com/stretchr/testify v1.8.1
)

require (
	github.com/ajg/form v1.5.1 // indirect
	github.com/davecgh/go-spew v1.1.1 // indirect
	github.com/go-chi/render v1.0.2 // indirect
	github.com/opencontainers/go-digest v1.0.0 // indirect
	github.com/pmezard/go-difflib v1.0.0 // indirect
	gopkg.in/yaml.v3 v3.0.1 // indirect
)
